module ImprovisedFlooring
{
    imports 
    {
        Base
    }

    recipe WoodAcaciaFloor {   
        keep [Recipe.GetItemTypes.Saw],
        keep [Recipe.GetItemTypes.Hammer],
        Plank,
        Nails=1,
	    Result:Moveables.floors_interior_tilesandwood_01_51,
	    Time:30.0,
	    NeedToBeLearn:False,
        SkillRequired:Woodwork=3,
        Category:Flooring,
        AnimNode:BuildLow,
        Prop1:Hammer,
        Sound:Hammering,
    }

    recipe WoodBirchwoodFloor {   
        keep [Recipe.GetItemTypes.Saw],
        keep [Recipe.GetItemTypes.Hammer],
        Plank,
        Nails=1,
	    Result:Moveables.floors_interior_tilesandwood_01_42,
	    Time:30.0,
	    NeedToBeLearn:False,
        SkillRequired:Woodwork=1,
        Category:Flooring,
        AnimNode:BuildLow,
        Prop1:Hammer,
        Sound:Hammering,
    }

    recipe WoodBirchwoodFloorTiles {
        keep [Recipe.GetItemTypes.Saw],
        keep [Recipe.GetItemTypes.Hammer],
        Plank,
        Nails=1,
	    Result:Moveables.floors_interior_tilesandwood_01_49,
	    Time:30.0,
	    NeedToBeLearn:False,
        SkillRequired:Woodwork=3,
        Category:Flooring,
        AnimNode:BuildLow,
        Prop1:Hammer,
        Sound:Hammering,
    }

    recipe WoodChestnutNorthFloor {
        keep [Recipe.GetItemTypes.Saw],
        keep [Recipe.GetItemTypes.Hammer],
        Plank,
        Nails=1,
	    Result:Moveables.floors_interior_tilesandwood_01_47,
	    Time:30.0,
	    NeedToBeLearn:False,
        SkillRequired:Woodwork=1,
        Category:Flooring,
        AnimNode:BuildLow,
        Prop1:Hammer,
        Sound:Hammering,
    }

    recipe WoodChestnutWestFloor {
        keep [Recipe.GetItemTypes.Saw],
        keep [Recipe.GetItemTypes.Hammer],
        Plank,
        Nails=1,
	    Result:Moveables.floors_interior_tilesandwood_01_46,
	    Time:30.0,
	    NeedToBeLearn:False,
        SkillRequired:Woodwork=1,
        Category:Flooring,
        AnimNode:BuildLow,
        Prop1:Hammer,
        Sound:Hammering,
    }

    recipe WoodCinnamonFloor {
        keep [Recipe.GetItemTypes.Saw],
        keep [Recipe.GetItemTypes.Hammer],
        Plank,
        Nails=1,
	    Result:Moveables.floors_interior_tilesandwood_01_50,
	    Time:30.0,
	    NeedToBeLearn:False,
        SkillRequired:Woodwork=3,
        Category:Flooring,
        AnimNode:BuildLow,
        Prop1:Hammer,
        Sound:Hammering,
    }

    recipe WoodCinnamonNorthFloor {
        keep [Recipe.GetItemTypes.Saw],
        keep [Recipe.GetItemTypes.Hammer],
        Plank,
        Nails=1,
	    Result:Moveables.floors_interior_tilesandwood_01_44,
	    Time:30.0,
	    NeedToBeLearn:False,
        SkillRequired:Woodwork=1,
        Category:Flooring,
        AnimNode:BuildLow,
        Prop1:Hammer,
        Sound:Hammering,
    }

    recipe WoodCinnamonWestFloor {
        keep [Recipe.GetItemTypes.Saw],
        keep [Recipe.GetItemTypes.Hammer],
        Plank,
        Nails=1,
	    Result:Moveables.floors_interior_tilesandwood_01_43,
	    Time:30.0,
	    NeedToBeLearn:False,
        SkillRequired:Woodwork=1,
        Category:Flooring,
        AnimNode:BuildLow,
        Prop1:Hammer,
        Sound:Hammering,
    }

    recipe WoodFinewoodFloor {
        keep [Recipe.GetItemTypes.Saw],
        keep [Recipe.GetItemTypes.Hammer],
        Plank,
        Nails=1,
	    Result:Moveables.floors_interior_tilesandwood_01_45,
	    Time:30.0,
	    NeedToBeLearn:False,
        SkillRequired:Woodwork=2,
        Category:Flooring,
        AnimNode:BuildLow,
        Prop1:Hammer,
        Sound:Hammering,
    }

    recipe WoodHardwoodFloor {
        keep [Recipe.GetItemTypes.Saw],
        keep [Recipe.GetItemTypes.Hammer],
        Plank,
        Nails=1,
	    Result:Moveables.floors_interior_tilesandwood_01_40,
	    Time:30.0,
	    NeedToBeLearn:False,
        SkillRequired:Woodwork=2,
        Category:Flooring,
        AnimNode:BuildLow,
        Prop1:Hammer,
        Sound:Hammering,
    }

    recipe WoodHardwoodFloorTiles {
        keep [Recipe.GetItemTypes.Saw],
        keep [Recipe.GetItemTypes.Hammer],
        Plank,
        Nails=1,
	    Result:Moveables.floors_interior_tilesandwood_01_48,
	    Time:30.0,
	    NeedToBeLearn:False,
        SkillRequired:Woodwork=3,
        Category:Flooring,
        AnimNode:BuildLow,
        Prop1:Hammer,
        Sound:Hammering,
    }

    recipe WoodOakwoodFloor {
        keep [Recipe.GetItemTypes.Saw],
        keep [Recipe.GetItemTypes.Hammer],
        Plank,
        Nails=1,
	    Result:Moveables.floors_interior_tilesandwood_01_41,
	    Time:30.0,
	    NeedToBeLearn:False,
        SkillRequired:Woodwork=1,
        Category:Flooring,
        AnimNode:BuildLow,
        Prop1:Hammer,
        Sound:Hammering,
    }

    recipe WoodPinewoodFloorTiles {
        keep [Recipe.GetItemTypes.Saw],
        keep [Recipe.GetItemTypes.Hammer],
        Plank,
        Nails=1,
	    Result:Moveables.floors_interior_tilesandwood_01_52,
	    Time:30.0,
	    NeedToBeLearn:False,
        SkillRequired:Woodwork=2,
        Category:Flooring,
        AnimNode:BuildLow,
        Prop1:Hammer,
        Sound:Hammering,
    }
}